<?xml version="1.0" encoding="utf-8"?>
<!-- Generator: Adobe Illustrator 13.0.0, SVG Export Plug-In . SVG Version: 6.00 Build 14948)  -->
<!DOCTYPE svg PUBLIC "-//W3C//DTD SVG 1.1//EN" "http://www.w3.org/Graphics/SVG/1.1/DTD/svg11.dtd">
<svg version="1.1" id="Layer_1" xmlns="http://www.w3.org/2000/svg" xmlns:xlink="http://www.w3.org/1999/xlink" x="0px" y="0px"
	 width="44px" height="44px" viewBox="0 0 44 44" enable-background="new 0 0 44 44" xml:space="preserve">
<g>
	<g>
		<path fill="#91BAC8" d="M22,0c12.151,0,22,9.85,22,22s-9.849,22-22,22C9.85,44,0,34.15,0,22S9.85,0,22,0 M22,1
			C10.421,1,1,10.42,1,22s9.421,21,21,21s21-9.42,21-21S33.579,1,22,1L22,1z"/>
	</g>
	<g>
		<path fill="#91BAC8" d="M30,15c0.553,0,1,0.448,1,1v11c0,0.552-0.447,1-1,1H14c-0.553,0-1-0.448-1-1V16c0-0.552,0.447-1,1-1H30
			 M30,16H14v11h16V16L30,16L30,16z"/>
	</g>
	<polyline fill="none" stroke="#91BAC8" points="15,17 22,22 29,17 	"/>
	<line fill="none" stroke="#91BAC8" x1="15" y1="26" x2="20.271" y2="20.896"/>
	<line fill="none" stroke="#91BAC8" x1="29" y1="26" x2="23.778" y2="20.958"/>
</g>
</svg>
