<?xml version="1.0" encoding="utf-8"?>
<!-- Generator: Adobe Illustrator 13.0.0, SVG Export Plug-In . SVG Version: 6.00 Build 14948)  -->
<!DOCTYPE svg PUBLIC "-//W3C//DTD SVG 1.1//EN" "http://www.w3.org/Graphics/SVG/1.1/DTD/svg11.dtd">
<svg version="1.1" id="Layer_1" xmlns="http://www.w3.org/2000/svg" xmlns:xlink="http://www.w3.org/1999/xlink" x="0px" y="0px"
	 width="17px" height="17px" viewBox="0 0 17 17" enable-background="new 0 0 17 17" xml:space="preserve">
<g>
	<rect x="3" fill="#91BAC8" width="1" height="4"/>
	<rect x="13" fill="#91BAC8" width="1" height="4"/>
	<g>
		<path fill="#91BAC8" d="M15,1c1.104,0,2,0.896,2,2v12c0,1.104-0.896,2-2,2H2c-1.104,0-2-0.896-2-2V3c0-1.104,0.896-2,2-2H15 M15,2
			H2C1.449,2,1,2.449,1,3v12c0,0.551,0.449,1,1,1h13c0.551,0,1-0.449,1-1V3C16,2.449,15.551,2,15,2L15,2z"/>
	</g>
	<rect y="5" fill="#91BAC8" width="17" height="1"/>
	<rect x="4" y="7" fill="#91BAC8" width="2" height="2"/>
	<rect x="7" y="7" fill="#91BAC8" width="2" height="2"/>
	<rect x="10" y="7" fill="#91BAC8" width="2" height="2"/>
	<rect x="13" y="7" fill="#91BAC8" width="2" height="2"/>
	<rect x="2" y="10" fill="#91BAC8" width="2" height="2"/>
	<rect x="5" y="10" fill="#91BAC8" width="2" height="2"/>
	<rect x="8" y="10" fill="#91BAC8" width="2" height="2"/>
	<rect x="11" y="10" fill="#91BAC8" width="2" height="2"/>
	<rect x="2" y="13" fill="#91BAC8" width="2" height="2"/>
	<rect x="5" y="13" fill="#91BAC8" width="2" height="2"/>
	<rect x="8" y="13" fill="#91BAC8" width="2" height="2"/>
	<rect x="11" y="13" fill="#91BAC8" width="2" height="2"/>
</g>
</svg>
