<?xml version="1.0" encoding="utf-8"?>
<!-- Generator: Adobe Illustrator 13.0.0, SVG Export Plug-In . SVG Version: 6.00 Build 14948)  -->
<!DOCTYPE svg PUBLIC "-//W3C//DTD SVG 1.1//EN" "http://www.w3.org/Graphics/SVG/1.1/DTD/svg11.dtd">
<svg version="1.1" id="Layer_1" xmlns="http://www.w3.org/2000/svg" xmlns:xlink="http://www.w3.org/1999/xlink" x="0px" y="0px"
	 width="25px" height="33px" viewBox="0 0 25 33" enable-background="new 0 0 25 33" xml:space="preserve">
<g>
	<path fill="#FFFFFF" d="M0,0v33h25V0H0z M7,3c1.381,0,2.5,1.119,2.5,2.5S8.381,8,7,8S4.5,6.881,4.5,5.5S5.619,3,7,3z M3,11
		c0-0.787,0.629-2.179,1.867-2.743C5.459,8.716,6.193,9,7,9s1.541-0.284,2.133-0.743C10.371,8.821,11,10.213,11,11c0,1,0,2,0,2H3
		C3,13,3,12,3,11z M23,29H2v-2h21V29z M23,24H2v-2h21V24z M23,19H2v-2h21V19z M23,14h-9v-2h9V14z M23,9h-9V7h9V9z"/>
</g>
</svg>
