<?xml version="1.0" encoding="utf-8"?>
<!-- Generator: Adobe Illustrator 13.0.0, SVG Export Plug-In . SVG Version: 6.00 Build 14948)  -->
<!DOCTYPE svg PUBLIC "-//W3C//DTD SVG 1.1//EN" "http://www.w3.org/Graphics/SVG/1.1/DTD/svg11.dtd">
<svg version="1.1" id="Layer_1" xmlns="http://www.w3.org/2000/svg" xmlns:xlink="http://www.w3.org/1999/xlink" x="0px" y="0px"
	 width="49px" height="32px" viewBox="0 0 49 32" enable-background="new 0 0 49 32" xml:space="preserve">
<g>
	<g>
		<path fill="none" stroke="#91BAC8" stroke-width="1.5" d="M11.373,13.89c0.786,0.773,0.786,2.027,0,2.8l-4.491,4.417
			c-0.786,0.773-2.061,0.773-2.847,0L3.48,20.562c-0.786-0.773-0.786-2.027,0-2.8l4.491-4.417c0.786-0.773,2.061-0.773,2.847,0
			L11.373,13.89z"/>
	</g>
	<g>
		<path fill="none" stroke="#91BAC8" stroke-width="1.5" d="M14.661,16.257c-0.786-0.773-2.061-0.773-2.847,0l-5.954,5.856
			c-0.786,0.773-0.786,2.027,0,2.8l0.856,0.842c0.786,0.773,2.061,0.773,2.847,0l5.954-5.855c0.786-0.773,0.786-2.027,0-2.801
			L14.661,16.257z"/>
	</g>
	<g>
		<path fill="none" stroke="#91BAC8" stroke-width="1.5" d="M18.333,21.447c0.786,0.773,0.786,2.027,0,2.8l-4.098,4.03
			c-0.786,0.773-2.061,0.773-2.847,0l-0.771-0.758c-0.786-0.773-0.786-2.028,0-2.8l4.098-4.031c0.787-0.773,2.062-0.773,2.847,0
			L18.333,21.447z"/>
	</g>
	<g>
		<path fill="none" stroke="#91BAC8" stroke-width="1.5" d="M21.18,24.247c-0.787-0.773-2.062-0.773-2.848,0l-2.572,2.53
			c-0.786,0.773-0.786,2.027,0,2.8l0.628,0.618c0.787,0.774,2.062,0.773,2.848,0l2.572-2.53c0.786-0.773,0.786-2.027,0-2.8
			L21.18,24.247z"/>
	</g>
	<g>
		<path fill="none" stroke="#91BAC8" stroke-width="1.5" d="M40.657,17.494c0,0,5.83-6.395,6.669-7.385
			c0.839-0.99,1.552-2.269,0.042-4.084c-1.51-1.815-3.146-3.424-3.985-4.332c-0.839-0.908-1.719-1.65-4.068,0.206
			s-3.566,2.228-4.698,2.228c-1.133,0-5.495-2.104-5.495-2.104c-1.049-0.536-2.223-1.031-4.237,0.578
			c-2.013,1.609-3.618,2.708-4.53,3.713c-1.048,1.155-0.121,2.306,0.503,2.888c0.797,0.743,1.496,1.227,3.523,0.124
			c1.972-1.072,3.709-1.976,5.159-0.825c2.391,1.897,4.32,3.713,6.753,5.734l5.774,5.22c0.786,0.772,0.786,2.026,0,2.8l-0.554,0.545
			c-0.787,0.773-2.062,0.773-2.848,0l-5.854-5.758"/>
	</g>
	<g>
		<path fill="none" stroke="#91BAC8" stroke-width="1.5" d="M32.371,16.608l6.709,6.598c0.786,0.773,0.786,2.027-0.001,2.8
			l-0.856,0.842c-0.786,0.773-2.061,0.773-2.847,0l-6.102-6"/>
	</g>
	<g>
		<path fill="none" stroke="#91BAC8" stroke-width="1.5" d="M25.491,24.241l5.592,5.5c0.786,0.773,2.061,0.773,2.847,0l0.77-0.757
			c0.786-0.774,0.786-2.028,0-2.801l-4.623-4.546"/>
	</g>
	<g>
		<path fill="none" stroke="#91BAC8" stroke-width="1.5" d="M25.491,24.241l3.06,3.01c0.786,0.772,0.786,2.027,0,2.8l-0.629,0.619
			c-0.786,0.773-2.062,0.773-2.848,0l-3.472-3.415"/>
	</g>
	<path fill="none" stroke="#91BAC8" stroke-width="1.5" d="M24.046,3.178c0,0-1.258-2.104-3.691-1.856
		c-2.433,0.248-3.943,1.815-6.292,1.856c-2.349,0.042-3.146-0.412-4.195-1.114C8.82,1.363,8.317,0.496,6.261,2.312
		C4.206,4.127,2.024,6.809,1.102,8.087c-0.923,1.279,0.144,2.286,1.175,3.341c1.006,1.032,4.069,3.383,4.069,3.383"/>
</g>
</svg>
