<?xml version="1.0" encoding="utf-8"?>
<!-- Generator: Adobe Illustrator 13.0.0, SVG Export Plug-In . SVG Version: 6.00 Build 14948)  -->
<!DOCTYPE svg PUBLIC "-//W3C//DTD SVG 1.1//EN" "http://www.w3.org/Graphics/SVG/1.1/DTD/svg11.dtd">
<svg version="1.1" id="Layer_1" xmlns="http://www.w3.org/2000/svg" xmlns:xlink="http://www.w3.org/1999/xlink" x="0px" y="0px"
	 width="46px" height="48px" viewBox="0 0 46 48" enable-background="new 0 0 46 48" xml:space="preserve">
<g>
	<path fill="none" stroke="#91BAC8" stroke-width="2" stroke-linecap="round" stroke-linejoin="round" d="M30.292,20.914
		c-1.356,0-2.454-1.109-2.454-2.478c0-1.368,1.098-2.477,2.454-2.477c1.356,0,2.455,1.109,2.455,2.477"/>
	<path fill="none" stroke="#91BAC8" stroke-width="2" stroke-linecap="round" stroke-linejoin="round" d="M30.292,21.037
		c1.356,0,2.455,1.109,2.455,2.478c0,1.369-1.099,2.478-2.455,2.478c-1.356,0-2.454-1.108-2.454-2.478"/>
	<path fill="#91BAC8" d="M31.441,15.373c0,0.554-0.446,1.004-0.994,1.004l0,0c-0.548,0-0.994-0.45-0.994-1.004v-1.004
		c0-0.554,0.446-1.001,0.994-1.001l0,0c0.548,0,0.994,0.447,0.994,1.001V15.373z"/>
	<path fill="#91BAC8" d="M31.441,27.54c0,0.553-0.446,1.002-0.994,1.002l0,0c-0.548,0-0.994-0.45-0.994-1.002v-1.004
		c0-0.554,0.446-1.004,0.994-1.004l0,0c0.548,0,0.994,0.45,0.994,1.004V27.54z"/>
	
		<line fill="none" stroke="#91BAC8" stroke-width="2" stroke-linecap="round" stroke-linejoin="round" x1="42.748" y1="25.929" x2="42.748" y2="26.933"/>
	<path fill="none" stroke="#91BAC8" stroke-width="2" stroke-linecap="round" stroke-linejoin="round" d="M18.892,25.929v-7.023
		c0-4.433,3.56-8.027,7.952-8.027h7.952c4.392,0,7.952,3.594,7.952,8.027v4.013"/>
	
		<rect x="27.838" y="6.865" fill="none" stroke="#91BAC8" stroke-width="2" stroke-linecap="round" stroke-linejoin="round" width="5.964" height="4.014"/>
	<path fill="none" stroke="#91BAC8" stroke-width="2" stroke-linecap="round" stroke-linejoin="round" d="M27.838,6.821
		c0,0-1.988-2.965-1.988-3.955c0-1.018,2.981-3.024,4.97-0.989"/>
	<path fill="none" stroke="#91BAC8" stroke-width="2" stroke-linecap="round" stroke-linejoin="round" d="M33.802,6.821
		c0,0,1.987-2.965,1.987-3.955c0-1.018-2.982-3.024-4.97-0.989"/>
	<g>
		<path fill="none" stroke="#91BAC8" stroke-width="2" stroke-linecap="round" stroke-linejoin="round" d="M1,30.946l5.075-2.561
			c0.491-0.248,1.088-0.047,1.334,0.449l5.075,10.245c0.25,0.505,0.069,1.119-0.414,1.403L1,47"/>
	</g>
	<g>
		
			<line fill="none" stroke="#91BAC8" stroke-width="2" stroke-linecap="round" stroke-linejoin="round" x1="4.106" y1="39.151" x2="1" y2="40.98"/>
	</g>
	<g>
		
			<line fill="none" stroke="#91BAC8" stroke-width="2" stroke-linecap="round" stroke-linejoin="round" x1="7.671" y1="37.053" x2="6.677" y2="37.638"/>
	</g>
	
		<line fill="none" stroke="#91BAC8" stroke-width="2" stroke-linecap="round" stroke-linejoin="round" x1="1" y1="47" x2="1" y2="31.95"/>
	<g>
		<path fill="none" stroke="#91BAC8" stroke-width="2" stroke-linecap="round" stroke-linejoin="round" d="M9.325,30.131
			c0,0,4.908-2.571,6.585-3.323c1.677-0.753,4.1-0.69,8.014,1.003c2.813,1.216,5.883,2.887,7.387,3.73
			c0.493,0.277,0.706,0.899,0.402,1.378l-1.475,2.324c-0.308,0.485-0.923,0.673-1.446,0.442l-6.607-2.921"/>
	</g>
	<g>
		<path fill="none" stroke="#91BAC8" stroke-width="2" stroke-linecap="round" stroke-linejoin="round" d="M35.293,33.58l6.309-3.02
			c0.518-0.248,1.142-0.084,1.474,0.387l1.767,2.505c0.303,0.429,0.154,1.028-0.314,1.263L31.13,41.418
			c-1.74,1.003-5.787,0.484-8.2-1.066c-2.05-1.317-5.218-4.578-9.07-1.129"/>
	</g>
</g>
</svg>
