<?xml version="1.0" encoding="utf-8"?>
<!-- Generator: Adobe Illustrator 13.0.0, SVG Export Plug-In . SVG Version: 6.00 Build 14948)  -->
<!DOCTYPE svg PUBLIC "-//W3C//DTD SVG 1.1//EN" "http://www.w3.org/Graphics/SVG/1.1/DTD/svg11.dtd">
<svg version="1.1" id="Layer_1" xmlns="http://www.w3.org/2000/svg" xmlns:xlink="http://www.w3.org/1999/xlink" x="0px" y="0px"
	 width="47px" height="45.938px" viewBox="0 0 47 45.938" enable-background="new 0 0 47 45.938" xml:space="preserve">
<g>
	<path fill="none" stroke="#91BAC8" stroke-width="2" d="M28,4.5C28,6.433,26.433,8,24.5,8h-20C2.567,8,1,6.433,1,4.5S2.567,1,4.5,1
		h20C26.433,1,28,2.567,28,4.5z"/>
	<path fill="none" stroke="#91BAC8" stroke-width="2" d="M39,11.438c0,1.933-1.567,3.5-3.5,3.5h-20c-1.933,0-3.5-1.567-3.5-3.5
		s1.567-3.5,3.5-3.5h20C37.433,7.938,39,9.504,39,11.438z"/>
	<path fill="#91BAC8" d="M22.134,41.938H11.453c-1.409,0-2.533-1.128-2.535-2.5c0.002-1.373,1.126-2.501,2.535-2.501h6.989
		c-0.299-0.646-0.564-1.31-0.773-2l-6.216,0c-1.409-0.002-2.533-1.128-2.535-2.501c0.002-1.371,1.126-2.5,2.535-2.5l5.572,0
		c0.021-0.679,0.088-1.346,0.194-2h-5.767c-1.409,0-2.533-1.128-2.535-2.499c0.002-1.373,1.126-2.501,2.535-2.501h7.486
		c0.391-0.704,0.841-1.368,1.332-2h-8.818c-1.409,0-2.533-1.128-2.535-2.499c0.002-1.373,1.126-2.501,2.535-2.501h15.61
		c1.694-0.635,3.521-1,5.437-1c2.016,0,3.936,0.397,5.703,1.097c-0.806-1.257-2.213-2.095-3.821-2.097H11.453
		c-2.498,0.004-4.535,2.007-4.537,4.5c0.001,1.426,0.682,2.676,1.72,3.499c-1.039,0.823-1.719,2.074-1.72,3.5
		c0.001,1.427,0.682,2.677,1.72,3.5c-1.039,0.823-1.719,2.073-1.72,3.5c0.001,1.427,0.682,2.677,1.721,3.5
		c-1.039,0.822-1.72,2.073-1.721,3.501c0.002,2.492,2.039,4.495,4.537,4.499h13.444C23.9,43.374,22.978,42.699,22.134,41.938z"/>
	<circle fill="none" stroke="#91BAC8" stroke-width="2" cx="31" cy="29.938" r="15"/>
	<path fill="none" stroke="#91BAC8" stroke-width="2" stroke-linecap="round" stroke-linejoin="round" d="M28.1,41.087
		c0.645,0.167,1.312,0.28,1.994,0.333"/>
	<path fill="none" stroke="#91BAC8" stroke-width="2" stroke-linecap="round" stroke-linejoin="round" d="M20.782,24.675
		c-0.819,1.581-1.282,3.377-1.282,5.28c0,4.587,2.687,8.546,6.57,10.393"/>
	<path fill="none" stroke="#91BAC8" stroke-width="2" stroke-linecap="round" stroke-linejoin="round" d="M33.175,18.661
		c-0.704-0.135-1.432-0.206-2.175-0.206"/>
	<path fill="none" stroke="#91BAC8" stroke-width="2" stroke-linecap="round" stroke-linejoin="round" d="M40.468,36.485
		c1.281-1.855,2.032-4.104,2.032-6.53c0-4.867-3.025-9.03-7.299-10.708"/>
	<path fill="none" stroke="#91BAC8" stroke-width="2" d="M31.031,29.986c-1.657,0-3-1.343-3-3s1.343-3,3-3s3,1.343,3,3"/>
	<path fill="none" stroke="#91BAC8" stroke-width="2" d="M31.031,29.986c1.657,0,3,1.343,3,3s-1.343,3-3,3s-3-1.343-3-3"/>
	<path fill="#91BAC8" d="M32.031,23.986c0,0.552-0.448,1-1,1l0,0c-0.553,0-1-0.448-1-1v-1c0-0.553,0.447-1,1-1l0,0
		c0.552,0,1,0.447,1,1V23.986z"/>
	<path fill="#91BAC8" d="M32.031,36.986c0,0.552-0.448,1-1,1l0,0c-0.553,0-1-0.448-1-1v-1c0-0.553,0.447-1,1-1l0,0
		c0.552,0,1,0.447,1,1V36.986z"/>
</g>
</svg>
