"1"	"Репетиторы по нормальным, популярным предметам"
"2"	"Репетиторы по супер редким предметам"
"3"	"Репетиторы по супер редким предметам"
"4"	"Репетиторы по супер редким предметам"
"5"	"Репетиторы по супер редким предметам"
"6"	"Репетиторы для начальных классов и детей по возрасту"
"7"	"Репетиторы по двум предметам (Например: математика и английский)"
"8"	"Репетиторы по трем предметам (Например: математика, физика и биология)"
"9"	"Репетиторы по олимпиадам"
"10"	"Репетиторы эксперты ЕГЭ"
"11"	"Репетиторы студенты"
"12"	"Репетиторы подготовка к"
"13"	"Репетиторы для дошкольников"
