"1"	"avtoinstruktor_obuchenie_vozhdeniju_v_spb"	"Частные автонструкторы Санкт-Петербурга"
"2"	"instruktor_po_vozhdeniju_sankt-peterburg"	"Инструкторы по вождению в Санкт-Петербурге"
"3"	"instruktor_po_vozhdeniju_zhenshhina"	"Частные инструкторы по вождению (женщины)"
