"1"	"3"	"Хотите найти репетитора по вокалу в Санкт-Петербурге? В нашей базе их - {TOTAL_COUNT}!"	"1"
"2"	"3"	"Хотите найти учителя по вокалу в Санкт-Петербурге? В нашей базе их - {TOTAL_COUNT}!"	"2"
"3"	"3"	"Хотите найти репетитора по пению в Санкт-Петербурге? В нашей базе их - {TOTAL_COUNT}!"	"3"
"4"	"3"	"Хотите найти учителя по пению в Санкт-Петербурге? В нашей базе их - {TOTAL_COUNT}!"	"4"
"5"	"3"	"Всего {TEXT}: <span>{TOTAL_COUNT}</span>"	"0"
"6"	"1"	"Хотите найти репетитора по {RECOMMEND_NAME} в Санкт-Петербурге? В нашей базе их - {TOTAL_COUNT}!"	"1"
"7"	"1"	"Всего {TEXT}: <span>{TOTAL_COUNT}</span>"	"0"
"8"	"2"		"1"
"9"	"2"	"Всего {TEXT}: <span>{TOTAL_COUNT}</span>"	"0"
"10"	"4"	"Хотите найти репетитора по по игре на ударных инструментах в Санкт-Петербурге? В нашей базе их - {TOTAL_COUNT}!"	"1"
"11"	"4"	"Всего {TEXT}: <span>{TOTAL_COUNT}</span>"	"0"
"12"	"5"	"Хотите найти репетитора по {RECOMMEND_NAME} в Санкт-Петербурге? В нашей базе их - {TOTAL_COUNT}!"	"1"
"13"	"5"	"Хотите найти учителя по {RECOMMEND_NAME} в Санкт-Петербурге? В нашей базе их - {TOTAL_COUNT}!"	"2"
"14"	"5"	"Всего {TEXT}: <span>{TOTAL_COUNT}</span>"	"0"
"15"	"6"	"Всего {TEXT}: <span>{TOTAL_COUNT}</span>"	"0"
"16"	"7"	"Хотите найти хорошего логопеда в Санкт-Петербурге? В нашей базе их - {TOTAL_COUNT}!"	"1"
"17"	"7"	"Всего {TEXT}: <span>{TOTAL_COUNT}</span>"	"0"
"18"	"8"	"{SEO_TOTAL_COUNT}{TOTAL_COUNT}"	"1"
"19"	"8"	"Всего: {TOTAL_COUNT}"	"0"
"20"	"9"	"{SEO_TOTAL_COUNT}<span>{TOTAL_COUNT}</span>"	"1"
"21"	"9"	"Всего: <span>{TOTAL_COUNT}</span>"	"0"
"22"	"10"	"Ищете частного автоинструктора в СПб? У нас их {TOTAL_COUNT}"	"0"
"23"	"11"	"Всего частных инструкторов по вождению автомобиля в СПб: {TOTAL_COUNT}"	"0"
"24"	"12"	"Всего автоинструкторов женщин в СПб: {TOTAL_COUNT}"	"0"
