"1"	"07:00:00"	"08:00:00"
"2"	"08:00:00"	"09:00:00"
"3"	"09:00:00"	"10:00:00"
"4"	"10:00:00"	"11:00:00"
"5"	"11:00:00"	"12:00:00"
"6"	"12:00:00"	"13:00:00"
"7"	"13:00:00"	"14:00:00"
"8"	"14:00:00"	"15:00:00"
"9"	"15:00:00"	"16:00:00"
"10"	"16:00:00"	"17:00:00"
"11"	"17:00:00"	"18:00:00"
"12"	"18:00:00"	"19:00:00"
"13"	"19:00:00"	"20:00:00"
"14"	"20:00:00"	"21:00:00"
"15"	"21:00:00"	"22:00:00"
"16"	"22:00:00"	"23:00:00"
